Website: google.com
IP: 172.217.22.142
Status: 'Open'

Hostname: MarkMonitor, Inc.
State: CA
Country: US
Emails: abusecomplaints@markmonitor.com
        whoisrequest@markmonitor.com
Creation dates: 1997-09-15 04:00:00
                1997-09-15 00:00:00
Expiration dates: 2020-09-14 04:00:00
                  2020-09-13 21:00:00
Updated dates: 2018-02-21 18:36:40
               2018-02-21 10:45:07

Name servers: NS1.GOOGLE.COM
              NS2.GOOGLE.COM
              NS3.GOOGLE.COM
              NS4.GOOGLE.COM
              ns4.google.com
              ns3.google.com
              ns2.google.com
              ns1.google.com

Directories found:
	http://www.google.com/images
	http://www.google.com/2006
	http://www.google.com/news
	http://www.google.com/contact
	http://www.google.com/about
	http://www.google.com/search
	http://www.google.com/privacy
	http://www.google.com/blog
	http://www.google.com/home
	http://www.google.com/2005
	http://www.google.com/products

Possible OS:
    OpenBSD 4.3
Ports:
    80 http gws 
    443 https gws 
