Website: https://www.seaharvest.net.au/
IP: 104.31.76.221
Status: 'Open'

Hostname: Netregistry Pty Ltd

Name servers: RAY.NS.CLOUDFLARE.COM
              BETH.NS.CLOUDFLARE.COM

CMS: Wordpress
Wordpress possible version:
	Generator: WordPress 5.2.2
	JS/CSS/Themes: WordPress 5.2.2
CMS: WooCommerce

Possible OS:
    Linux 3.12 - 4.10
    Linux 3.18
    Linux 3.16
Ports:
    80 http cloudflare 
    443 https cloudflare 

Directories found:
	https://www.seaharvest.net.au/contact
	https://www.seaharvest.net.au/about
	https://www.seaharvest.net.au/privacy
	https://www.seaharvest.net.au/logo
	https://www.seaharvest.net.au/rss
	https://www.seaharvest.net.au/home
	https://www.seaharvest.net.au/products
